....................
----------------------------------------------------------------------
Ran 20 tests in 33.729s

OK
Name             Stmts   Miss Branch BrPart  Cover   Missing
------------------------------------------------------------
Collatz.py          48      3     20      1    94%   36-38, 35->36
TestCollatz.py      84      0      0      0   100%
------------------------------------------------------------
TOTAL              132      3     20      1    97%
