.........................
----------------------------------------------------------------------
Ran 25 tests in 0.030s

OK
Name             Stmts   Miss Branch BrPart  Cover   Missing
------------------------------------------------------------
Collatz.py          76      5     42      5    92%   98, 100, 102, 120, 132, 97->98, 99->100, 101->102, 111->120, 123->132
TestCollatz.py     107      0      0      0   100%
------------------------------------------------------------
TOTAL              183      5     42      5    96%
